…
``` r
# Avg price by borough and neighborhood
nyc_airbnb |> 
  group_by(neighbourhood_group, neighbourhood) |> 
  summarize(
    avg_price = mean(price, na.rm = TRUE)
  )
```

    ## `summarise()` has grouped output by 'neighbourhood_group'. You can override
    ## using the `.groups` argument.

    ## # A tibble: 217 × 3
    ## # Groups:   neighbourhood_group [5]
    ##    neighbourhood_group neighbourhood     avg_price
    ##    <chr>               <chr>                 <dbl>
    ##  1 Bronx               Allerton               68.6
    ##  2 Bronx               Baychester             54  
    ##  3 Bronx               Belmont                55.4
    ##  4 Bronx               Bronxdale              65.2
    ##  5 Bronx               Castle Hill            85  
    ##  6 Bronx               City Island           143. 
    ##  7 Bronx               Claremont Village      51.6
    ##  8 Bronx               Clason Point           63.2
    ##  9 Bronx               Co-op City            116. 
    ## 10 Bronx               Concourse              87.9
    ## # ℹ 207 more rows
…
Summary table

``` r
nyc_airbnb |> 
  filter(
    neighbourhood_group == "Manhattan",
    price < 1000, 
    room_type == "Entire home/apt") |> 
  group_by(neighbourhood) |> 
  summarize(mean_price = mean(price, na.rm = TRUE)) |> 
  arrange(desc(mean_price))
```

    ## # A tibble: 32 × 2
    ##    neighbourhood      mean_price
    ##    <chr>                   <dbl>
    ##  1 Tribeca                  358.
    ##  2 NoHo                     312.
    ##  3 Flatiron District        307.
    ##  4 SoHo                     296.
    ##  5 Theater District         282.
    ##  6 Midtown                  276.
    ##  7 Battery Park City        271.
    ##  8 Greenwich Village        256.
    ##  9 Chelsea                  255.
    ## 10 Financial District       250.
    ## # ℹ 22 more rows
…
